{
  "totalHits": 34644,
  "currentPage": 1,
  "totalPages": 17322,
  "pageList": [
    1,
    2,
    3,
    4,
    5,
    6,
    7,
    8,
    9,
    10
  ],
  "foodSearchCriteria": {
    "dataType": [
      "Branded"
    ],
    "query": "potato",
    "generalSearchInput": "potato",
    "pageNumber": 1,
    "numberOfResultsPerPage": 50,
    "pageSize": 2,
    "requireAllWords": false,
    "foodTypes": [
      "Branded"
    ]
  },
  "foods": [
    {
      "fdcId": 2627030,
      "description": "KASIA'S, POTATO PANCAKES, POTATO, POTATO",
      "dataType": "Branded",
      "gtinUpc": "709481000201",
      "publishedDate": "2023-08-31",
      "brandOwner": "Kasia's Deli Inc.",
      "brandName": "KASIA'S",
      "ingredients": "FRESH POTATOES, LIQUID WHOLE EGGS, EGG WHITES, POTATO STARCH, ONIONS, SOYBEAN OIL, ENRICHED WHEAT FLOUR (WHEAT FLOUR, MALTED BARLEY FLOUR, NIACIN, IRON, THIAMIN MONONITRATE, RIBOFLAVIN, FOLIC ACID), VEGETABLE SEASONING (SALT, SUGAR, DEHYDRATED VEGETABLES (TO INCLUDE PARSLEY, CELERY, GARLIC AND ONION), SPICES AND HERBS), SALT, POTATO FLAKES (DEHYDRATED POTATOES (POTATOES, MONO AND DIGLYCERIDES, SODIUM ACID PYROPHOSPHATE AND CITRIC ACID TO PRESERVE)), PEPPER.",
      "marketCountry": "United States",
      "foodCategory": "Pre-Packaged Fruit & Vegetables",
      "modifiedDate": "2023-07-11",
      "dataSource": "LI",
      "packageWeight": "12 oz/341 g",
      "servingSizeUnit": "GRM",
      "servingSize": 57.0,
      "householdServingFullText": "1 PANCAKE",
      "shortDescription": "",
      "tradeChannels": [
        "NO_TRADE_CHANNEL"
      ],
      "allHighlightFields": "<b>Ingredients</b>: FRESH <em>POTATOES</em>, LIQUID WHOLE EGGS, EGG WHITES, <em>POTATO</em> STARCH, ONIONS, SOYBEAN OIL, ENRICHED WHEAT",
      "score": -108.521965,
      "microbes": [],
      "foodNutrients": [
        {
          "nutrientId": 1003,
          "nutrientName": "Protein",
          "nutrientNumber": "203",
          "unitName": "G",
          "derivationCode": "LCCS",
          "derivationDescription": "Calculated from value per serving size measure",
          "derivationId": 70,
          "value": 3.51,
          "foodNutrientSourceId": 9,
          "foodNutrientSourceCode": "12",
          "foodNutrientSourceDescription": "Manufacturer's analytical; partial documentation",
          "rank": 600,
          "indentLevel": 1,
          "foodNutrientId": 32866557
        },
        {
          "nutrientId": 1004,
          "nutrientName": "Total lipid (fat)",
          "nutrientNumber": "204",
          "unitName": "G",
          "derivationCode": "LCCS",
          "derivationDescription": "Calculated from value per serving size measure",
          "derivationId": 70,
          "value": 7.02,
          "foodNutrientSourceId": 9,
          "foodNutrientSourceCode": "12",
          "foodNutrientSourceDescription": "Manufacturer's analytical; partial documentation",
          "rank": 800,
          "indentLevel": 1,
          "foodNutrientId": 32866558,
          "percentDailyValue": 7
        },
        {
          "nutrientId": 1005,
          "nutrientName": "Carbohydrate, by difference",
          "nutrientNumber": "205",
          "unitName": "G",
          "derivationCode": "LCCS",
          "derivationDescription": "Calculated from value per serving size measure",
          "derivationId": 70,
          "value": 26.3,
          "foodNutrientSourceId": 9,
          "foodNutrientSourceCode": "12",
          "foodNutrientSourceDescription": "Manufacturer's analytical; partial documentation",
          "rank": 1110,
          "indentLevel": 2,
          "foodNutrientId": 32866559,
          "percentDailyValue": 5
        },
        {
          "nutrientId": 1008,
          "nutrientName": "Energy",
          "nutrientNumber": "208",
          "unitName": "KCAL",
          "derivationCode": "LCCS",
          "derivationDescription": "Calculated from value per serving size measure",
          "derivationId": 70,
          "value": 158,
          "foodNutrientSourceId": 9,
          "foodNutrientSourceCode": "12",
          "foodNutrientSourceDescription": "Manufacturer's analytical; partial documentation",
          "rank": 300,
          "indentLevel": 1,
          "foodNutrientId": 32866560
        },
        {
          "nutrientId": 2000,
          "nutrientName": "Total Sugars",
          "nutrientNumber": "269",
          "unitName": "G",
          "derivationCode": "LCCS",
          "derivationDescription": "Calculated from value per serving size measure",
          "derivationId": 70,
          "value": 1.75,
          "foodNutrientSourceId": 9,
          "foodNutrientSourceCode": "12",
          "foodNutrientSourceDescription": "Manufacturer's analytical; partial documentation",
          "rank": 1510,
          "indentLevel": 3,
          "foodNutrientId": 32866561
        },
        {
          "nutrientId": 1079,
          "nutrientName": "Fiber, total dietary",
          "nutrientNumber": "291",
          "unitName": "G",
          "derivationCode": "LCCS",
          "derivationDescription": "Calculated from value per serving size measure",
          "derivationId": 70,
          "value": 1.8,
          "foodNutrientSourceId": 9,
          "foodNutrientSourceCode": "12",
          "foodNutrientSourceDescription": "Manufacturer's analytical; partial documentation",
          "rank": 1200,
          "indentLevel": 3,
          "foodNutrientId": 32866562,
          "percentDailyValue": 4
        },
        {
          "nutrientId": 1087,
          "nutrientName": "Calcium, Ca",
          "nutrientNumber": "301",
          "unitName": "MG",
          "derivationCode": "LCCD",
          "derivationDescription": "Calculated from a daily value percentage per serving size measure",
          "derivationId": 75,
          "value": 0.0,
          "foodNutrientSourceId": 9,
          "foodNutrientSourceCode": "12",
          "foodNutrientSourceDescription": "Manufacturer's analytical; partial documentation",
          "rank": 5300,
          "indentLevel": 1,
          "foodNutrientId": 32866563,
          "percentDailyValue": 0
        },
        {
          "nutrientId": 1089,
          "nutrientName": "Iron, Fe",
          "nutrientNumber": "303",
          "unitName": "MG",
          "derivationCode": "LCCD",
          "derivationDescription": "Calculated from a daily value percentage per serving size measure",
          "derivationId": 75,
          "value": 0.63,
          "foodNutrientSourceId": 9,
          "foodNutrientSourceCode": "12",
          "foodNutrientSourceDescription": "Manufacturer's analytical; partial documentation",
          "rank": 5400,
          "indentLevel": 1,
          "foodNutrientId": 32866564,
          "percentDailyValue": 2
        },
        {
          "nutrientId": 1093,
          "nutrientName": "Sodium, Na",
          "nutrientNumber": "307",
          "unitName": "MG",
          "derivationCode": "LCCS",
          "derivationDescription": "Calculated from value per serving size measure",
          "derivationId": 70,
          "value": 439,
          "foodNutrientSourceId": 9,
          "foodNutrientSourceCode": "12",
          "foodNutrientSourceDescription": "Manufacturer's analytical; partial documentation",
          "rank": 5800,
          "indentLevel": 1,
          "foodNutrientId": 32866565,
          "percentDailyValue": 10
        },
        {
          "nutrientId": 1162,
          "nutrientName": "Vitamin C, total ascorbic acid",
          "nutrientNumber": "401",
          "unitName": "MG",
          "derivationCode": "LCCD",
          "derivationDescription": "Calculated from a daily value percentage per serving size measure",
          "derivationId": 75,
          "value": 2.1,
          "foodNutrientSourceId": 9,
          "foodNutrientSourceCode": "12",
          "foodNutrientSourceDescription": "Manufacturer's analytical; partial documentation",
          "rank": 6300,
          "indentLevel": 1,
          "foodNutrientId": 32866566,
          "percentDailyValue": 2
        },
        {
          "nutrientId": 1253,
          "nutrientName": "Cholesterol",
          "nutrientNumber": "601",
          "unitName": "MG",
          "derivationCode": "LCCS",
          "derivationDescription": "Calculated from value per serving size measure",
          "derivationId": 70,
          "value": 44.0,
          "foodNutrientSourceId": 9,
          "foodNutrientSourceCode": "12",
          "foodNutrientSourceDescription": "Manufacturer's analytical; partial documentation",
          "rank": 15700,
          "indentLevel": 1,
          "foodNutrientId": 32866567,
          "percentDailyValue": 8
        },
        {
          "nutrientId": 1257,
          "nutrientName": "Fatty acids, total trans",
          "nutrientNumber": "605",
          "unitName": "G",
          "derivationCode": "LCCS",
          "derivationDescription": "Calculated from value per serving size measure",
          "derivationId": 70,
          "value": 0.0,
          "foodNutrientSourceId": 9,
          "foodNutrientSourceCode": "12",
          "foodNutrientSourceDescription": "Manufacturer's analytical; partial documentation",
          "rank": 15400,
          "indentLevel": 1,
          "foodNutrientId": 32866568,
          "percentDailyValue": 0
        },
        {
          "nutrientId": 1258,
          "nutrientName": "Fatty acids, total saturated",
          "nutrientNumber": "606",
          "unitName": "G",
          "derivationCode": "LCCS",
          "derivationDescription": "Calculated from value per serving size measure",
          "derivationId": 70,
          "value": 2.63,
          "foodNutrientSourceId": 9,
          "foodNutrientSourceCode": "12",
          "foodNutrientSourceDescription": "Manufacturer's analytical; partial documentation",
          "rank": 9700,
          "indentLevel": 1,
          "foodNutrientId": 32866569,
          "percentDailyValue": 8
        },
        {
          "nutrientId": 2067,
          "nutrientName": "Vitamin A",
          "nutrientNumber": "960",
          "unitName": "UG",
          "derivationCode": "LCCD",
          "derivationDescription": "Calculated from a daily value percentage per serving size measure",
          "derivationId": 75,
          "value": 0.0,
          "foodNutrientSourceId": 9,
          "foodNutrientSourceCode": "12",
          "foodNutrientSourceDescription": "Manufacturer's analytical; partial documentation",
          "rank": 7430,
          "indentLevel": 1,
          "foodNutrientId": 32866570,
          "percentDailyValue": 0
        }
      ],
      "finalFoodInputFoods": [],
      "foodMeasures": [],
      "foodAttributes": [],
      "foodAttributeTypes": [],
      "foodVersionIds": []
    },
    {
      "fdcId": 2397792,
      "description": "GNOCCHI WITH POTATO, POTATO",
      "dataType": "Branded",
      "gtinUpc": "07789048538",
      "publishedDate": "2022-12-22",
      "brandOwner": "Wegmans Food Markets, Inc. ",
      "brandName": "WEGMANS",
      "subbrandName": "ITALIAN CLASSICS",
      "ingredients": "POTATO PUREE (WATER, POTATO FLAKES), WHEAT FLOUR, SALT, NATURAL FLAVOR, RICE FLOUR, LACTIC ACID (ACIDITY REGULATOR).",
      "marketCountry": "United States",
      "foodCategory": "Pasta by Shape & Type",
      "modifiedDate": "2020-12-01",
      "dataSource": "LI",
      "packageWeight": "16 oz/1 lbs/454 g",
      "servingSizeUnit": "g",
      "servingSize": 140.0,
      "householdServingFullText": "1 cup",
      "shortDescription": "",
      "tradeChannels": [
        "NO_TRADE_CHANNEL"
      ],
      "allHighlightFields": "<b>Ingredients</b>: <em>POTATO</em> PUREE (WATER, <em>POTATO</em> FLAKES), WHEAT FLOUR, SALT, NATURAL FLAVOR, RICE FLOUR, LACTIC ACID (ACIDITY REGULATOR).",
      "score": -113.98068,
      "microbes": [],
      "foodNutrients": [
        {
          "nutrientId": 1003,
          "nutrientName": "Protein",
          "nutrientNumber": "203",
          "unitName": "G",
          "derivationCode": "LCCS",
          "derivationDescription": "Calculated from value per serving size measure",
          "derivationId": 70,
          "value": 3.57,
          "foodNutrientSourceId": 9,
          "foodNutrientSourceCode": "12",
          "foodNutrientSourceDescription": "Manufacturer's analytical; partial documentation",
          "rank": 600,
          "indentLevel": 1,
          "foodNutrientId": 29534719
        },
        {
          "nutrientId": 1004,
          "nutrientName": "Total lipid (fat)",
          "nutrientNumber": "204",
          "unitName": "G",
          "derivationCode": "LCCS",
          "derivationDescription": "Calculated from value per serving size measure",
          "derivationId": 70,
          "value": 0.36,
          "foodNutrientSourceId": 9,
          "foodNutrientSourceCode": "12",
          "foodNutrientSourceDescription": "Manufacturer's analytical; partial documentation",
          "rank": 800,
          "indentLevel": 1,
          "foodNutrientId": 29534720,
          "percentDailyValue": 1
        },
        {
          "nutrientId": 1005,
          "nutrientName": "Carbohydrate, by difference",
          "nutrientNumber": "205",
          "unitName": "G",
          "derivationCode": "LCCS",
          "derivationDescription": "Calculated from value per serving size measure",
          "derivationId": 70,
          "value": 29.3,
          "foodNutrientSourceId": 9,
          "foodNutrientSourceCode": "12",
          "foodNutrientSourceDescription": "Manufacturer's analytical; partial documentation",
          "rank": 1110,
          "indentLevel": 2,
          "foodNutrientId": 29534721,
          "percentDailyValue": 15
        },
        {
          "nutrientId": 1008,
          "nutrientName": "Energy",
          "nutrientNumber": "208",
          "unitName": "KCAL",
          "derivationCode": "LCCS",
          "derivationDescription": "Calculated from value per serving size measure",
          "derivationId": 70,
          "value": 136,
          "foodNutrientSourceId": 9,
          "foodNutrientSourceCode": "12",
          "foodNutrientSourceDescription": "Manufacturer's analytical; partial documentation",
          "rank": 300,
          "indentLevel": 1,
          "foodNutrientId": 29534722
        },
        {
          "nutrientId": 2000,
          "nutrientName": "Total Sugars",
          "nutrientNumber": "269",
          "unitName": "G",
          "derivationCode": "LCCS",
          "derivationDescription": "Calculated from value per serving size measure",
          "derivationId": 70,
          "value": 0.0,
          "foodNutrientSourceId": 9,
          "foodNutrientSourceCode": "12",
          "foodNutrientSourceDescription": "Manufacturer's analytical; partial documentation",
          "rank": 1510,
          "indentLevel": 3,
          "foodNutrientId": 29534723
        },
        {
          "nutrientId": 1079,
          "nutrientName": "Fiber, total dietary",
          "nutrientNumber": "291",
          "unitName": "G",
          "derivationCode": "LCCS",
          "derivationDescription": "Calculated from value per serving size measure",
          "derivationId": 70,
          "value": 0.7,
          "foodNutrientSourceId": 9,
          "foodNutrientSourceCode": "12",
          "foodNutrientSourceDescription": "Manufacturer's analytical; partial documentation",
          "rank": 1200,
          "indentLevel": 3,
          "foodNutrientId": 29534724,
          "percentDailyValue": 5
        },
        {
          "nutrientId": 1087,
          "nutrientName": "Calcium, Ca",
          "nutrientNumber": "301",
          "unitName": "MG",
          "derivationCode": "LCCS",
          "derivationDescription": "Calculated from value per serving size measure",
          "derivationId": 70,
          "value": 7.0,
          "foodNutrientSourceId": 9,
          "foodNutrientSourceCode": "12",
          "foodNutrientSourceDescription": "Manufacturer's analytical; partial documentation",
          "rank": 5300,
          "indentLevel": 1,
          "foodNutrientId": 29534725,
          "percentDailyValue": 0
        },
        {
          "nutrientId": 1089,
          "nutrientName": "Iron, Fe",
          "nutrientNumber": "303",
          "unitName": "MG",
          "derivationCode": "LCCS",
          "derivationDescription": "Calculated from value per serving size measure",
          "derivationId": 70,
          "value": 0.21,
          "foodNutrientSourceId": 9,
          "foodNutrientSourceCode": "12",
          "foodNutrientSourceDescription": "Manufacturer's analytical; partial documentation",
          "rank": 5400,
          "indentLevel": 1,
          "foodNutrientId": 29534726,
          "percentDailyValue": 0
        },
        {
          "nutrientId": 1092,
          "nutrientName": "Potassium, K",
          "nutrientNumber": "306",
          "unitName": "MG",
          "derivationCode": "LCCS",
          "derivationDescription": "Calculated from value per serving size measure",
          "derivationId": 70,
          "value": 114,
          "foodNutrientSourceId": 9,
          "foodNutrientSourceCode": "12",
          "foodNutrientSourceDescription": "Manufacturer's analytical; partial documentation",
          "rank": 5700,
          "indentLevel": 1,
          "foodNutrientId": 29534727,
          "percentDailyValue": 4
        },
        {
          "nutrientId": 1093,
          "nutrientName": "Sodium, Na",
          "nutrientNumber": "307",
          "unitName": "MG",
          "derivationCode": "LCCS",
          "derivationDescription": "Calculated from value per serving size measure",
          "derivationId": 70,
          "value": 343,
          "foodNutrientSourceId": 9,
          "foodNutrientSourceCode": "12",
          "foodNutrientSourceDescription": "Manufacturer's analytical; partial documentation",
          "rank": 5800,
          "indentLevel": 1,
          "foodNutrientId": 29534728,
          "percentDailyValue": 21
        },
        {
          "nutrientId": 1110,
          "nutrientName": "Vitamin D (D2 + D3), International Units",
          "nutrientNumber": "324",
          "unitName": "IU",
          "derivationCode": "LCCD",
          "derivationDescription": "Calculated from a daily value percentage per serving size measure",
          "derivationId": 75,
          "value": 0.0,
          "foodNutrientSourceId": 9,
          "foodNutrientSourceCode": "12",
          "foodNutrientSourceDescription": "Manufacturer's analytical; partial documentation",
          "rank": 8650,
          "indentLevel": 1,
          "foodNutrientId": 29534729,
          "percentDailyValue": 0
        },
        {
          "nutrientId": 1253,
          "nutrientName": "Cholesterol",
          "nutrientNumber": "601",
          "unitName": "MG",
          "derivationCode": "LCCD",
          "derivationDescription": "Calculated from a daily value percentage per serving size measure",
          "derivationId": 75,
          "value": 0.0,
          "foodNutrientSourceId": 9,
          "foodNutrientSourceCode": "12",
          "foodNutrientSourceDescription": "Manufacturer's analytical; partial documentation",
          "rank": 15700,
          "indentLevel": 1,
          "foodNutrientId": 29534730,
          "percentDailyValue": 0
        },
        {
          "nutrientId": 1257,
          "nutrientName": "Fatty acids, total trans",
          "nutrientNumber": "605",
          "unitName": "G",
          "derivationCode": "LCCS",
          "derivationDescription": "Calculated from value per serving size measure",
          "derivationId": 70,
          "value": 0.0,
          "foodNutrientSourceId": 9,
          "foodNutrientSourceCode": "12",
          "foodNutrientSourceDescription": "Manufacturer's analytical; partial documentation",
          "rank": 15400,
          "indentLevel": 1,
          "foodNutrientId": 29534731
        },
        {
          "nutrientId": 1258,
          "nutrientName": "Fatty acids, total saturated",
          "nutrientNumber": "606",
          "unitName": "G",
          "derivationCode": "LCCD",
          "derivationDescription": "Calculated from a daily value percentage per serving size measure",
          "derivationId": 75,
          "value": 0.14,
          "foodNutrientSourceId": 9,
          "foodNutrientSourceCode": "12",
          "foodNutrientSourceDescription": "Manufacturer's analytical; partial documentation",
          "rank": 9700,
          "indentLevel": 1,
          "foodNutrientId": 29534732,
          "percentDailyValue": 1
        }
      ],
      "finalFoodInputFoods": [],
      "foodMeasures": [],
      "foodAttributes": [],
      "foodAttributeTypes": [],
      "foodVersionIds": []
    }
  ],
  "aggregations": {
    "dataType": {
      "Branded": 34644,
      "Survey (FNDDS)": 373,
      "SR Legacy": 155,
      "Foundation": 5,
      "Experimental": 2
    },
    "nutrients": {}
  }
}
